{
    "KPlugin": {
        "Authors": [
            {
                "Email": "stephane@mankowski.fr",
                "Name": "Stephane MANKOWSKI,miraks",
                "Name[ca@valencia]": "Stephane MANKOWSKI,miraks",
                "Name[ca]": "Stephane MANKOWSKI,miraks",
                "Name[en_GB]": "Stephane MANKOWSKI,miraks",
                "Name[eo]": "Stephane MANKOWSKI,miraks",
                "Name[es]": "Stephane MANKOWSKI,miraks",
                "Name[fi]": "Stephane MANKOWSKI,miraks",
                "Name[fr]": "Stephane MANKOWSKI, miraks",
                "Name[gl]": "Stephane MANKOWSKI, miraks",
                "Name[ia]": "Stephane MANKOWSKI,miraks",
                "Name[it]": "Stephane MANKOWSKI,miraks",
                "Name[ka]": "Stephane MANKOWSKI,miraks",
                "Name[nl]": "Stephane MANKOWSKI,miraks",
                "Name[pl]": "Stephane MANKOWSKI,miraks",
                "Name[pt]": "Stephane MANKOWSKI,miraks",
                "Name[ru]": "Stephane MANKOWSKI,miraks",
                "Name[sl]": "Stephane MANKOWSKI,miraks",
                "Name[sv]": "Stephane MANKOWSKI,miraks",
                "Name[tr]": "Stephane MANKOWSKI,miraks",
                "Name[uk]": "Stephane MANKOWSKI,miraks",
                "Name[x-test]": "xxStephane MANKOWSKI,miraksxx"
            }
        ],
        "Category": "Plugins",
        "Description": "A skrooge plugin to manage scheduled transactions",
        "Description[ca@valencia]": "Un connector de Skrooge per a gestionar operacions planificades",
        "Description[ca]": "Un connector de l'Skrooge per a gestionar operacions planificades",
        "Description[eo]": "Skrooge-kromaĵo por administri planitajn transakciojn",
        "Description[es]": "Complemento de Skrooge para la gestión de transacciones programadas",
        "Description[fr]": "Un module externe pour la gestion des opérations planifiées",
        "Description[gl]": "Un complemento de Skrooge para xestionar transaccións planificadas.",
        "Description[it]": "Un'estensione di Skrooge per gestire le transazioni pianificate",
        "Description[ka]": "Skrooge-ის დამატება დაგეგმილი ტრანზაქციების სამართავად",
        "Description[nl]": "Een skrooge-plugin voor het beheren van geplande transacties",
        "Description[sl]": "Vtičnik Skrooge za upravljanje vnaprej načrtovanih transakcij",
        "Description[sv]": "Ett insticksprogram till skrooge för att hantera schemalagda transaktioner",
        "Description[tr]": "Zamanlanmış işlemleri yönetmek için bir Varyemez eklentisi",
        "Description[uk]": "Додаток до skrooge для керування розкладом дій",
        "Description[x-test]": "xxA skrooge plugin to manage scheduled transactionsxx",
        "EnabledByDefault": true,
        "Icon": "skrooge",
        "Id": "skrooge_scheduled",
        "License": "GPL",
        "Name": "Skrooge scheduled plugin",
        "Name[bs]": "Skrooge dodatak za planiranje",
        "Name[ca@valencia]": "Connector de planificació de Skrooge",
        "Name[ca]": "Connector de planificació de l'Skrooge",
        "Name[cs]": "Modul plánování pro Skrooge",
        "Name[da]": "Skemalægnings-plugin til Skrooge",
        "Name[de]": "Skrooge-Modul für geplante Aktionen",
        "Name[el]": "Skrooge scheduled plugin",
        "Name[en_GB]": "Skrooge scheduled plugin",
        "Name[eo]": "Skrooge planita kromaĵo",
        "Name[es]": "Complemento de programación de Skrooge",
        "Name[et]": "Skrooge ajaplaaniplugin",
        "Name[fi]": "Skroogen ajastusliitännäinen",
        "Name[fr]": "Moteur externe Skrooge pour la gestion des opérations programmées",
        "Name[gl]": "Complemento de planificación de Skrooge",
        "Name[hu]": "Skrooge ütemezett bővítmény",
        "Name[it]": "Estensione di pianificazione di Skrooge",
        "Name[ka]": "Skrooge განრიგის დამატება",
        "Name[lt]": "Skrooge suplanuotos operacijų papildinys",
        "Name[nb]": "Skrooge tidsplanmodul",
        "Name[nds]": "Plaanmoduul för Skrooge",
        "Name[nl]": "Plugin voor Skrooge-bewerkingen plannen",
        "Name[pl]": "Wtyczka harmonogramu dla Skrooge",
        "Name[pt]": "'Plugin' de agendamentos do Skrooge",
        "Name[pt_BR]": "Plugin de agendamento do Skrooge",
        "Name[ru]": "Модуль плановых операций",
        "Name[sk]": "Plugin plánovacia Skrooge",
        "Name[sl]": "Vtičnik Skrooge časovnega plana",
        "Name[sv]": "Skrooge schemaläggningsinsticksprogram",
        "Name[tr]": "Varyemez Planlama Eklentisi",
        "Name[uk]": "Додаток розкладу Skrooge",
        "Name[x-test]": "xxSkrooge scheduled pluginxx",
        "Name[zh_TW]": "Skrooge 排程外掛程式",
        "ServiceTypes": [
            "SKG GUI/Plugin"
        ],
        "Version": "1.0",
        "Website": "https://skrooge.org/"
    },
    "X-Krunner-ID": "Skrooge scheduled plugin"
}
