{
    "KPlugin": {
        "Authors": [
            {
                "Email": "stephane@mankowski.fr",
                "Name": "Stephane MANKOWSKI",
                "Name[ca@valencia]": "Stephane MANKOWSKI",
                "Name[ca]": "Stephane MANKOWSKI",
                "Name[en_GB]": "Stephane MANKOWSKI",
                "Name[eo]": "Stephane MANKOWSKI",
                "Name[es]": "Stephane MANKOWSKI",
                "Name[fi]": "Stephane MANKOWSKI",
                "Name[fr]": "Stephane MANKOWSKI",
                "Name[gl]": "Stephane MANKOWSKI",
                "Name[ia]": "Stephane MANKOWSKI",
                "Name[it]": "Stephane MANKOWSKI",
                "Name[ka]": "Stephane MANKOWSKI",
                "Name[nl]": "Stephane MANKOWSKI",
                "Name[pl]": "Stephane MANKOWSKI",
                "Name[pt]": "Stephane MANKOWSKI",
                "Name[ru]": "Stephane MANKOWSKI",
                "Name[sk]": "Stephane MANKOWSKI",
                "Name[sl]": "Stephane MANKOWSKI",
                "Name[sv]": "Stephane MANKOWSKI",
                "Name[tr]": "Stephane MANKOWSKI",
                "Name[uk]": "Stephane MANKOWSKI",
                "Name[x-test]": "xxStephane MANKOWSKIxx"
            }
        ],
        "Category": "Plugins",
        "Description": "A Skrooge plugin to import CSV files",
        "Description[ca@valencia]": "Un connector de Skrooge per a importar fitxers CSV",
        "Description[ca]": "Un connector de l'Skrooge per a importar fitxers CSV",
        "Description[cs]": "Modul Skrooge pro import souborů CSV",
        "Description[en_GB]": "A Skrooge plugin to import CSV files",
        "Description[eo]": "Skrooge kromaĵo por importi CSV-dosierojn",
        "Description[es]": "Complemento de Skrooge para importar archivos CSV",
        "Description[fi]": "Skroogen CSV-tiedostojen tuontiliitännäinen",
        "Description[fr]": "Un module externe de Skrooge pour l'importation de fichiers « CSV »",
        "Description[gl]": "Un complemento de Skrooge para importar ficheiros CSV.",
        "Description[it]": "Un'estensione di Skrooge per importare i file CSV",
        "Description[ka]": "Skrooge -ის დამატება CSV -ის შემოსატანად",
        "Description[nl]": "Een Skrooge-plugin voor het importeren van CSV-bestanden",
        "Description[pl]": "Wtyczka Skrooge do importu plików CSV",
        "Description[pt]": "Um 'plugin' do Skrooge para importar ficheiros CSV",
        "Description[ru]": "Модуль импорта файлов CSV",
        "Description[sl]": "Vtičnik Skrooge za uvažanje datotek CSV",
        "Description[sv]": "Ett insticksprogram till Skrooge för att importera CSV-filer",
        "Description[tr]": "CSV dosyaları içe aktarmak için Varyemez eklentisi",
        "Description[uk]": "Додаток до Skrooge для імпортування даних з файлів CSV",
        "Description[x-test]": "xxA Skrooge plugin to import CSV filesxx",
        "EnabledByDefault": true,
        "Icon": "skrooge",
        "Id": "skrooge_import_csv",
        "License": "GPL",
        "Name": "Skrooge import CSV plugin",
        "Name[bs]": "Skrooge dodatak za CSV uvoz",
        "Name[ca@valencia]": "Connector d'importació de CSV de Skrooge",
        "Name[ca]": "Connector d'importació de CSV de l'Skrooge",
        "Name[cs]": "Modul Skrooge pro import CSV",
        "Name[da]": "Plugin til import af CSV til Skrooge",
        "Name[de]": "Skrooge-CSV-Importmodul",
        "Name[el]": "Skrooge import CSV plugin",
        "Name[en_GB]": "Skrooge import CSV plugin",
        "Name[eo]": "Skrooge import CSV-kromaĵo",
        "Name[es]": "Complemento de importación CSV en Skrooge",
        "Name[et]": "Skrooge CSV impordi plugin",
        "Name[fi]": "Skroogen CSV-tuontiliitännäinen",
        "Name[fr]": "Moteur externe de Skrooge pour l'importation « CSV »",
        "Name[gl]": "Complemento de importación de CSV a Skrooge",
        "Name[hu]": "Skrooge CSV importálás bővítmény",
        "Name[it]": "Estensione di Skrooge per l'importazione CSV",
        "Name[ka]": "Skrooge -ის დამატება CSV -ის შემოსატანად",
        "Name[lt]": "Skrooge CSV importavimo papildinys",
        "Name[nb]": "Skrooge-modul for CSV-import",
        "Name[nl]": "Plugin van Skrooge voor CSV-importeren",
        "Name[pl]": "Wtyczka importu CSV dla Skrooge",
        "Name[pt]": "'Plugin' de importação de CSV do Skrooge",
        "Name[pt_BR]": "Plugin de importação de CSV para o Skrooge",
        "Name[ru]": "Модуль импорта файлов CSV",
        "Name[sk]": "Skrooge plugin CSV import",
        "Name[sl]": "Vtičnik Skrooge uvoza csv",
        "Name[sv]": "Skrooge CSV-importinsticksprogram",
        "Name[tr]": "Varyemez CSV İçe Aktarma Eklentisi",
        "Name[uk]": "Додаток імпортування CSV до Skrooge",
        "Name[x-test]": "xxSkrooge import CSV pluginxx",
        "Name[zh_TW]": "Skrooge 匯入 CSV 外掛程式",
        "Version": "1.0",
        "Website": "https://skrooge.org/"
    },
    "X-Krunner-ID": "Skrooge import CSV plugin"
}
