"BOKFØRINGSDATO","RENTEDATO","ARKIVREFERANSE","TYPE","TEKST","UT FRA KONTO","INN PÅ KONTO"
"2011-01-10","2011-01-10","*17947117","Varekjøp","08.01 881 KIWI NØSTET NØSTEGT 31 BERGEN",331.53,
"2010-12-31","2011-01-01","90010000","Kreditrente","KREDITRENTER",,33.66
"2010-12-21","2010-12-21","*17488953","Varekjøp","20.12 KROATHAI AS NYGÅRDSG. 29 BERGEN",119.00,
"2010-12-20","2010-12-20","*17933569","Varekjøp","18.12 EKSOTISK TORG CHRISTIESGT. BERGEN",383.22,
