{
    "KPlugin": {
        "Authors": [
            {
                "Email": "stephane@mankowski.fr",
                "Name": "Stephane MANKOWSKI",
                "Name[ca@valencia]": "Stephane MANKOWSKI",
                "Name[ca]": "Stephane MANKOWSKI",
                "Name[en_GB]": "Stephane MANKOWSKI",
                "Name[eo]": "Stephane MANKOWSKI",
                "Name[es]": "Stephane MANKOWSKI",
                "Name[fi]": "Stephane MANKOWSKI",
                "Name[fr]": "Stephane MANKOWSKI",
                "Name[gl]": "Stephane MANKOWSKI",
                "Name[ia]": "Stephane MANKOWSKI",
                "Name[it]": "Stephane MANKOWSKI",
                "Name[ka]": "Stephane MANKOWSKI",
                "Name[nl]": "Stephane MANKOWSKI",
                "Name[pl]": "Stephane MANKOWSKI",
                "Name[pt]": "Stephane MANKOWSKI",
                "Name[ru]": "Stephane MANKOWSKI",
                "Name[sk]": "Stephane MANKOWSKI",
                "Name[sl]": "Stephane MANKOWSKI",
                "Name[sv]": "Stephane MANKOWSKI",
                "Name[tr]": "Stephane MANKOWSKI",
                "Name[uk]": "Stephane MANKOWSKI",
                "Name[x-test]": "xxStephane MANKOWSKIxx"
            }
        ],
        "Category": "Plugins",
        "Description": "A Skrooge plugin to import XML files",
        "Description[ca@valencia]": "Un connector de Skrooge per a importar fitxers en XML",
        "Description[ca]": "Un connector de l'Skrooge per a importar fitxers XML",
        "Description[cs]": "Modul Skrooge pro import souborů XML",
        "Description[en_GB]": "A Skrooge plugin to import XML files",
        "Description[eo]": "Skrooge kromaĵo por importi XML-dosierojn",
        "Description[es]": "Complemento de Skrooge para importar archivos XML",
        "Description[fi]": "Skroogen XML-tiedostojen tuontiliitännäinen",
        "Description[fr]": "Un module externe de Skrooge pour l'importation de fichiers « XML »",
        "Description[gl]": "Un complemento do Skrooge para importar ficheiros XML.",
        "Description[it]": "Un'estensione di Skrooge per importare i file XML",
        "Description[ka]": "Skrooge -ის დამატება XML -ის შემოსატანად",
        "Description[nl]": "Een Skrooge-plugin voor het importeren van XML-bestanden",
        "Description[pl]": "Wtyczka Skrooge do importu plików XML",
        "Description[pt]": "Um 'plugin' do Skrooge para importar ficheiros XML",
        "Description[ru]": "Модуль импорта файлов XML",
        "Description[sl]": "Vtičnik Skrooge za uvažanje datotek XML",
        "Description[sv]": "Ett insticksprogram till Skrooge för att importera XML-filer",
        "Description[tr]": "XML dosyaları içe aktarmak için Varyemez eklentisi",
        "Description[uk]": "Додаток до Skrooge для імпортування даних з файлів XML",
        "Description[x-test]": "xxA Skrooge plugin to import XML filesxx",
        "EnabledByDefault": true,
        "Icon": "skrooge",
        "Id": "skrooge_import_xml",
        "License": "GPL",
        "Name": "Skrooge import XML plugin",
        "Name[bs]": "Skrooge dodatak za XML uvoz",
        "Name[ca@valencia]": "Connector d'importació d'XML de Skrooge",
        "Name[ca]": "Connector d'importació d'XML de l'Skrooge",
        "Name[cs]": "Modul Skrooge pro import XML",
        "Name[da]": "Plugin til import af XML til Skrooge",
        "Name[de]": "Skrooge-XML-Importmodul",
        "Name[el]": "Skrooge import XML plugin",
        "Name[en_GB]": "Skrooge import XML plugin",
        "Name[eo]": "Skrooge import XML-kromaĵo",
        "Name[es]": "Complemento de importación XML en Skrooge",
        "Name[et]": "Skrooge XML impordi plugin",
        "Name[fi]": "Skroogen XML-tuontiliitännäinen",
        "Name[fr]": "Moteur externe de Skrooge pour l'importation « XML »",
        "Name[gl]": "Complemento de importación de XML a Skrooge",
        "Name[hu]": "Skrooge XML importáló bővítmény",
        "Name[it]": "Estensione di Skrooge per l'importazione XML",
        "Name[ka]": "Skrooge -ის დამატება XML -ის შემოსატანად",
        "Name[lt]": "Skrooge XML importavimo papildinys",
        "Name[nb]": "Skrooge-modul for XML-import",
        "Name[nl]": "Plugin van Skrooge voor importeren van XML",
        "Name[pl]": "Wtyczka importu XML dla Skrooge",
        "Name[pt]": "'Plugin' de importação de XML do Skrooge",
        "Name[pt_BR]": "Plugin de importação de XML para o Skrooge",
        "Name[ru]": "Модуль импорта файлов XML",
        "Name[sk]": "Skrooge plugin XML import",
        "Name[sl]": "Vtičnik Skrooge uvoza XML",
        "Name[sv]": "Skrooge XML-importinsticksprogram",
        "Name[tr]": "Varyemez XML İçe Aktarma Eklentisi",
        "Name[uk]": "Додаток імпортування XML до Skrooge",
        "Name[x-test]": "xxSkrooge import XML pluginxx",
        "Name[zh_TW]": "Skrooge 匯入 XML 外掛程式",
        "Version": "1.0",
        "Website": "https://skrooge.org/"
    },
    "X-Krunner-ID": "Skrooge import XML plugin"
}
